{
  "contentSummary": {
    "averageRating": 0,
    "averageRatingText": "0.0",
    "totalRatingCount": 0,
    "totalCommentCount": 0,
    "hasMediaFiles": false,
    "imageUrl": "",
    "ratingCounts": [],
    "tags": [],
    "productSizes": [],
    "description": "",
    "weightTags": [],
    "heightTags": []
  },
  "productReviews": {
    "page": 2,
    "size": 20,
    "totalPages": 25,
    "totalElements": 484,
    "content": [
      {
        "id": 410904506,
        "contentId": "782213857",
        "culture": "en-QA",
        "userId": 124018819,
        "userFullName": "r** s**",
        "sellerName": "Trendyol",
        "sellerId": 968,
        "commentDateISOType": "2024-07-12",
        "comment": "Good quality and same as picture",
        "mediaFiles": [],
        "reviewLikeCount": 0,
        "originalComment": "Good quality and same as picture",
        "rate": 5,
        "commentTitle": "",
        "language": "en",
        "lastModifiedDate": 1720820563101,
        "trusted": true,
        "createdDate": 1720820563101,
        "productSize": "42",
        "receivedFrom": ""
      },
      {
        "id": 410221272,
        "contentId": "782213857",
        "culture": "en-AE",
        "userId": 123372181,
        "userFullName": "**** ****",
        "sellerName": "Trendyol",
        "sellerId": 968,
        "commentDateISOType": "2024-07-10",
        "comment": "amazing.great quality and cut i gighly recommend it",
        "mediaFiles": [],
        "reviewLikeCount": 0,
        "originalComment": "amazing.great quality and cut i gighly recommend it",
        "rate": 5,
        "commentTitle": "",
        "language": "en",
        "lastModifiedDate": 1720590003237,
        "trusted": true,
        "createdDate": 1720590003237,
        "productSize": "38",
        "receivedFrom": ""
      },
      {
        "productAttributes": {
          "height": "165",
          "weight": "58"
        },
        "id": 476538927,
        "contentId": "782213857",
        "culture": "tr-TR",
        "userId": 134484359,
        "userFullName": "A** C** G**",
        "sellerName": "Trendyol",
        "sellerId": 968,
        "commentDateISOType": "2025-03-02",
        "comment": "Unfortunately it didn't fit me That's why I returned it but the product is very nice",
        "mediaFiles": [],
        "reviewLikeCount": 0,
        "originalComment": "Maalesef kal\u0131b\u0131 bana olmad\u0131 bu sebeple iade ettim ama \u00fcr\u00fcn \u00e7ok g\u00fczel",
        "rate": 4,
        "commentTitle": "",
        "language": "tr",
        "lastModifiedDate": 1740920321844,
        "trusted": true,
        "createdDate": 1740920321844,
        "receivedFrom": ""
      },
      {
        "productAttributes": {
          "height": "164",
          "weight": "46"
        },
        "id": 475946988,
        "contentId": "782213857",
        "culture": "tr-TR",
        "userId": 133494071,
        "userFullName": "E** S** t**",
        "sellerName": "Trendyol",
        "sellerId": 968,
        "commentDateISOType": "2025-02-27",
        "comment": "It looks very stylish. I also liked the quality of the fabric, apart from being slightly loose.",
        "mediaFiles": [],
        "reviewLikeCount": 0,
        "originalComment": "\u00c7ok \u015f\u0131k g\u00f6r\u00fcn\u00fcyor. Hafif bol olmas\u0131 d\u0131s\u0131nda kuma\u015f kalitesini de be\u011fendim",
        "rate": 5,
        "commentTitle": "",
        "language": "tr",
        "lastModifiedDate": 1740681341272,
        "trusted": true,
        "createdDate": 1740681341272,
        "receivedFrom": ""
      },
      {
        "productAttributes": {
          "height": "160",
          "weight": "63"
        },
        "id": 473031637,
        "contentId": "782213857",
        "culture": "tr-TR",
        "userId": 143180205,
        "userFullName": "**** ****",
        "sellerName": "Trendyol",
        "sellerId": 968,
        "commentDateISOType": "2025-02-16",
        "comment": "The fabric is nice, but I had to return it because it was too small (due to the abdominal area)",
        "mediaFiles": [],
        "reviewLikeCount": 0,
        "originalComment": "Kuma\u015f\u0131 g\u00fczel, Beden olarak k\u00fc\u00e7\u00fck geldi\u011finden ( kar\u0131n b\u00f6lgesininden\ndolay\u0131) iade etmek zorunda kald\u0131m",
        "rate": 4,
        "commentTitle": "",
        "language": "tr",
        "lastModifiedDate": 1739719720310,
        "trusted": true,
        "createdDate": 1739719720310,
        "receivedFrom": ""
      },
      {
        "id": 472973941,
        "contentId": "782213857",
        "culture": "tr-TR",
        "userId": 172790120,
        "userFullName": "**** ****",
        "sellerName": "Trendyol",
        "sellerId": 968,
        "commentDateISOType": "2025-02-16",
        "comment": "Good quality fabric but a little big but nice",
        "mediaFiles": [],
        "reviewLikeCount": 0,
        "originalComment": "Kaliteli kuma\u015f\u0131 ama biraz b\u00fcy\u00fck geldi ama g\u00fczel",
        "rate": 4,
        "commentTitle": "",
        "language": "tr",
        "lastModifiedDate": 1739699555232,
        "trusted": true,
        "createdDate": 1739699555232,
        "receivedFrom": ""
      },
      {
        "productAttributes": {
          "height": "163",
          "weight": "74"
        },
        "id": 472492803,
        "contentId": "782213857",
        "culture": "tr-TR",
        "userId": 143908958,
        "userFullName": "A** B**",
        "sellerName": "Trendyol",
        "sellerId": 968,
        "commentDateISOType": "2025-02-14",
        "comment": "Unfortunately it was too small. I returned it.",
        "mediaFiles": [],
        "reviewLikeCount": 0,
        "originalComment": "maalesef dar geldi iade",
        "rate": 5,
        "commentTitle": "",
        "language": "tr",
        "lastModifiedDate": 1739532345261,
        "trusted": true,
        "createdDate": 1739532345261,
        "receivedFrom": ""
      },
      {
        "productAttributes": {},
        "id": 472149244,
        "contentId": "782213857",
        "culture": "tr-TR",
        "userId": 152870584,
        "userFullName": "**** ****",
        "sellerName": "Trendyol",
        "sellerId": 968,
        "commentDateISOType": "2025-02-13",
        "comment": "there is no such thing mold form fabric stance Full points",
        "mediaFiles": [],
        "reviewLikeCount": 0,
        "originalComment": "b\u00f6yle bir \u015fey yok kal\u0131b\u0131 formu kuma\u015f\u0131 duru\u015fu tam puan",
        "rate": 5,
        "commentTitle": "",
        "language": "tr",
        "lastModifiedDate": 1739434556793,
        "trusted": true,
        "createdDate": 1739434556793,
        "receivedFrom": ""
      },
      {
        "productAttributes": {
          "height": "174",
          "weight": "68"
        },
        "id": 471656137,
        "contentId": "782213857",
        "culture": "tr-TR",
        "userId": 138491763,
        "userFullName": "N** K**",
        "sellerName": "Trendyol",
        "sellerId": 968,
        "commentDateISOType": "2025-02-11",
        "comment": "I liked it very much. It's a very stylish piece. Since I have a small waist, these types of vests were worn from the top and wrapped around the waist. I love this vest because the buttons are crossed.",
        "mediaFiles": [
          {
            "id": 107721900,
            "url": "https://review-rating.mncdn.com/prod/img/2018925/2020919/2029892/782213857/138491763-1739291675146.jpeg",
            "thumbnailUrl": "https://review-rating.mncdn.com/mnresize/300/300/prod/img/2018925/2020919/2029892/782213857/138491763-1739291675146.jpeg",
            "mediaType": "IMAGE",
            "height": 2016,
            "weight": 1134
          }
        ],
        "reviewLikeCount": 0,
        "originalComment": "\u00c7ok be\u011fendimmmmm. \u00c7ok \u015f\u0131k bi par\u00e7aa belim ince oldu\u011fu i\u00e7in bu tarz\nyelekler \u00fcstten olup belden potluk yap\u0131yordu bu yele\u011fin d\u00fc\u011fmeleri \u00e7apraz\noldu\u011fu i\u00e7in tam olduu bay\u0131ld\u0131m",
        "rate": 5,
        "commentTitle": "",
        "language": "tr",
        "lastModifiedDate": 1739291785593,
        "trusted": true,
        "createdDate": 1739291675573,
        "receivedFrom": ""
      },
      {
        "productAttributes": {
          "height": "157",
          "weight": "60"
        },
        "id": 471629453,
        "contentId": "782213857",
        "culture": "tr-TR",
        "userId": 138663736,
        "userFullName": "**** ****",
        "sellerName": "Trendyol",
        "sellerId": 968,
        "commentDateISOType": "2025-02-11",
        "comment": "armholes are too deep Also, the chest area is very tight",
        "mediaFiles": [],
        "reviewLikeCount": 0,
        "originalComment": "kol oyuntular\u0131 \u00e7ok derin ayr\u0131ca g\u00f6\u011f\u00fcs k\u0131sm\u0131 \u00e7ok kast\u0131",
        "rate": 2,
        "commentTitle": "",
        "language": "tr",
        "lastModifiedDate": 1739285451191,
        "trusted": true,
        "createdDate": 1739285451191,
        "receivedFrom": ""
      },
      {
        "productAttributes": {
          "height": "161",
          "weight": "53"
        },
        "id": 394874092,
        "contentId": "782213857",
        "culture": "tr-TR",
        "userId": 12354121,
        "userFullName": "**** ****",
        "sellerName": "Trendyol",
        "sellerId": 968,
        "commentDateISOType": "2024-04-26",
        "comment": "Unfortunately, the armpits are very revealing, you need to wear something other than underneath. Unfortunately, renovation does not seem possible.",
        "mediaFiles": [],
        "reviewLikeCount": 2,
        "originalComment": "Koltu alt\u0131 \u00e7ok a\u00e7\u0131k malesef, alt\u0131ndan ba\u015fka bi\u015fey giymek gerekiyor.\nTadilat da m\u00fcmk\u00fcn g\u00f6r\u00fcnm\u00fcyo malesef",
        "rate": 2,
        "commentTitle": "",
        "language": "tr",
        "lastModifiedDate": 1714156113380,
        "trusted": true,
        "createdDate": 1714156113380,
        "productSize": "36",
        "receivedFrom": ""
      },
      {
        "productAttributes": {
          "height": "160",
          "weight": "48"
        },
        "id": 394535299,
        "contentId": "782213857",
        "culture": "tr-TR",
        "userId": 133673180,
        "userFullName": "G** D**",
        "sellerName": "Trendyol",
        "sellerId": 968,
        "commentDateISOType": "2024-04-25",
        "comment": "Perfect fit, looks great",
        "mediaFiles": [],
        "reviewLikeCount": 0,
        "originalComment": "Tam kal\u0131p, harika duruyor",
        "rate": 5,
        "commentTitle": "",
        "language": "tr",
        "lastModifiedDate": 1714035138305,
        "trusted": true,
        "createdDate": 1714035138305,
        "productSize": "34",
        "receivedFrom": ""
      },
      {
        "productAttributes": {
          "height": "170",
          "weight": "60"
        },
        "id": 394395848,
        "contentId": "782213857",
        "culture": "tr-TR",
        "userId": 136684109,
        "userFullName": "Y** D**",
        "sellerName": "Trendyol",
        "sellerId": 968,
        "commentDateISOType": "2024-04-24",
        "comment": "The fabric and pattern are very good. You can buy your own size.",
        "mediaFiles": [],
        "reviewLikeCount": 2,
        "originalComment": "Kuma\u015f\u0131 kal\u0131b\u0131 \u00e7ok iyi bir \u00fcr\u00fcn kendi bedeninizi alabilirsiniz",
        "rate": 5,
        "commentTitle": "",
        "language": "tr",
        "lastModifiedDate": 1713972253261,
        "trusted": true,
        "createdDate": 1713972253261,
        "productSize": "38",
        "receivedFrom": ""
      },
      {
        "productAttributes": {
          "height": "160",
          "weight": "55"
        },
        "id": 468542270,
        "contentId": "782213857",
        "culture": "tr-TR",
        "userId": 134434692,
        "userFullName": "Z** S**",
        "sellerName": "Trendyol",
        "sellerId": 968,
        "commentDateISOType": "2025-03-10",
        "comment": "The product is very nice, it is small I'll buy it one size larger.",
        "mediaFiles": [],
        "reviewLikeCount": 0,
        "originalComment": "\u00dcr\u00fcn  g\u00fczel",
        "rate": 5,
        "commentTitle": "",
        "language": "tr",
        "lastModifiedDate": 1741594372996,
        "trusted": true,
        "createdDate": 1738243994050,
        "receivedFrom": ""
      },
      {
        "id": 460164620,
        "contentId": "782213857",
        "culture": "tr-TR",
        "userId": 136532952,
        "userFullName": "n** a**",
        "sellerName": "Trendyol",
        "sellerId": 968,
        "commentDateISOType": "2025-01-02",
        "comment": "It's a great product, it doesn't grow like similar products It has a very nice pattern, I loved it",
        "mediaFiles": [],
        "reviewLikeCount": 0,
        "originalComment": "Harika bi \u00fcr\u00fcn,benzerleri gibi crop kalm\u0131yo gayet ho\u015f bi kal\u0131b\u0131 var bay\u0131ld\u0131m",
        "rate": 5,
        "commentTitle": "",
        "language": "tr",
        "lastModifiedDate": 1735845444293,
        "trusted": true,
        "createdDate": 1735845444293,
        "receivedFrom": ""
      },
      {
        "id": 474754364,
        "contentId": "782213857",
        "culture": "tr-TR",
        "userId": 151482145,
        "userFullName": "**** ****",
        "sellerName": "Trendyol",
        "sellerId": 968,
        "commentDateISOType": "2025-02-22",
        "comment": "The product is not bad but it was too small for me. My upper body is big. I guess that didn't happen.",
        "mediaFiles": [],
        "reviewLikeCount": 0,
        "originalComment": "\u00dcr\u00fcn fen de\u011fil ama bana k\u00fc\u00e7\u00fck geldi. \u00dcst bedenim b\u00fcy\u00fck. san\u0131r\u0131m ondan olmad\u0131.",
        "rate": 4,
        "commentTitle": "",
        "language": "tr",
        "lastModifiedDate": 1740252272990,
        "trusted": true,
        "createdDate": 1740252272990,
        "receivedFrom": ""
      },
      {
        "id": 386097214,
        "contentId": "782213857",
        "culture": "tr-TR",
        "userId": 139562111,
        "userFullName": "**** ****",
        "sellerName": "Trendyol",
        "sellerId": 968,
        "commentDateISOType": "2024-03-19",
        "comment": "It's very nice, but it's a bit tight",
        "mediaFiles": [],
        "reviewLikeCount": 0,
        "originalComment": "\u00c7ok g\u00fczel ancak biraz dar",
        "rate": 5,
        "commentTitle": "",
        "language": "tr",
        "lastModifiedDate": 1710841724914,
        "trusted": true,
        "createdDate": 1710841724914,
        "productSize": "36",
        "receivedFrom": ""
      },
      {
        "id": 385758052,
        "contentId": "782213857",
        "culture": "tr-TR",
        "userId": 134540175,
        "userFullName": "\u00f6** e**",
        "sellerName": "Trendyol",
        "sellerId": 968,
        "commentDateISOType": "2024-03-18",
        "comment": "I love it. It's a great product. A perfect fit. I bought a size 42, and it's very comfortable.",
        "mediaFiles": [],
        "reviewLikeCount": 0,
        "originalComment": "bay\u0131ld\u0131m harika bir \u00fcr\u00fcn tam kal\u0131p 42 beden ald\u0131m \u00e7ok rahat",
        "rate": 5,
        "commentTitle": "",
        "language": "tr",
        "lastModifiedDate": 1710748124996,
        "trusted": true,
        "createdDate": 1710748124996,
        "productSize": "42",
        "receivedFrom": ""
      },
      {
        "id": 390910736,
        "contentId": "782213857",
        "culture": "tr-TR",
        "userId": 49171473,
        "userFullName": "**** ****",
        "sellerName": "Trendyol",
        "sellerId": 968,
        "commentDateISOType": "2024-04-05",
        "comment": "It's pretty big, but it's good quality",
        "mediaFiles": [],
        "reviewLikeCount": 0,
        "originalComment": "baya buyuk ama kaliteli",
        "rate": 3,
        "commentTitle": "",
        "language": "tr",
        "lastModifiedDate": 1712325797927,
        "trusted": true,
        "createdDate": 1712325797927,
        "productSize": "38",
        "receivedFrom": ""
      },
      {
        "productAttributes": {
          "height": "165",
          "weight": "50"
        },
        "id": 452858318,
        "contentId": "782213857",
        "culture": "tr-TR",
        "userId": 134360057,
        "userFullName": "Z** M**",
        "sellerName": "Trendyol",
        "sellerId": 968,
        "commentDateISOType": "2024-12-17",
        "comment": "I bought it by looking at the photos, but the armpit part is very bad, it is left too open and the pot is stuck due to the opening. I think your product molds are different. When you look from the side, it shows all the way you know.",
        "mediaFiles": [],
        "reviewLikeCount": 0,
        "originalComment": "Foto\u011fraflara bakarak ald\u0131m ama koltuk alt\u0131 k\u0131sm\u0131 \u00e7ok k\u00f6t\u00fc hem fazlas\u0131yla\na\u00e7\u0131k kald\u0131 hemde a\u00e7\u0131kl\u0131ktan dolay\u0131 pot duruyor. \u00dcr\u00fcn kal\u0131plar\u0131n\u0131z farkl\u0131\nfarkl\u0131 san\u0131r\u0131m. Yandan bak\u0131nca bildi\u011fin i\u00e7ine kadar g\u00f6z\u00fck\u00fcyor.",
        "rate": 1,
        "commentTitle": "",
        "language": "tr",
        "lastModifiedDate": 1734472558695,
        "trusted": true,
        "createdDate": 1734472558695,
        "receivedFrom": ""
      }
    ]
  }
}